%YAML 1.1
%TAG !u! tag:unity3d.com,2011:
--- !u!65 &3248654198391497782
BoxCollider:
  m_ObjectHideFlags: 0
  m_CorrespondingSourceObject: {fileID: 0}
  m_PrefabInstance: {fileID: 0}
  m_PrefabAsset: {fileID: 0}
  m_GameObject: {fileID: 948594379637891215}
  m_Material: {fileID: 0}
  m_IsTrigger: 0
  m_Enabled: 1
  serializedVersion: 2
  m_Size: {x: 0.0021743935, y: 0.04938243, z: 0.0028273314}
  m_Center: {x: -0.00118182, y: 0.059091885, z: -0.00097146316}
--- !u!65 &3248654198391497928
BoxCollider:
  m_ObjectHideFlags: 0
  m_CorrespondingSourceObject: {fileID: 0}
  m_PrefabInstance: {fileID: 0}
  m_PrefabAsset: {fileID: 0}
  m_GameObject: {fileID: 948594379637891215}
  m_Material: {fileID: 0}
  m_IsTrigger: 0
  m_Enabled: 1
  serializedVersion: 2
  m_Size: {x: 0.010000003, y: 0.016630271, z: 0.010000003}
  m_Center: {x: 0, y: 0.0033151328, z: 0}
--- !u!65 &3248654198391497929
BoxCollider:
  m_ObjectHideFlags: 0
  m_CorrespondingSourceObject: {fileID: 0}
  m_PrefabInstance: {fileID: 0}
  m_PrefabAsset: {fileID: 0}
  m_GameObject: {fileID: 948594379637891215}
  m_Material: {fileID: 0}
  m_IsTrigger: 0
  m_Enabled: 1
  serializedVersion: 2
  m_Size: {x: 0.007850474, y: 0.022919662, z: 0.007062578}
  m_Center: {x: -0.0010747632, y: 0.023460202, z: 0.00065498287}
--- !u!1 &2323747764514322374
GameObject:
  m_ObjectHideFlags: 0
  m_CorrespondingSourceObject: {fileID: 0}
  m_PrefabInstance: {fileID: 0}
  m_PrefabAsset: {fileID: 0}
  serializedVersion: 6
  m_Component:
  - component: {fileID: 2323747764514352102}
  m_Layer: 0
  m_Name: building5
  m_TagString: Untagged
  m_Icon: {fileID: 0}
  m_NavMeshLayer: 0
  m_StaticEditorFlags: 0
  m_IsActive: 1
--- !u!4 &2323747764514352102
Transform:
  m_ObjectHideFlags: 0
  m_CorrespondingSourceObject: {fileID: 0}
  m_PrefabInstance: {fileID: 0}
  m_PrefabAsset: {fileID: 0}
  m_GameObject: {fileID: 2323747764514322374}
  m_LocalRotation: {x: 0, y: 0, z: 0, w: 1}
  m_LocalPosition: {x: 18.906338, y: 40.371445, z: 24.634125}
  m_LocalScale: {x: 0.7657009, y: 0.7657009, z: 0.7657009}
  m_Children:
  - {fileID: 948594379637406895}
  m_Father: {fileID: 0}
  m_RootOrder: 0
  m_LocalEulerAnglesHint: {x: 0, y: 0, z: 0}
--- !u!1001 &948594379637794351
PrefabInstance:
  m_ObjectHideFlags: 0
  serializedVersion: 2
  m_Modification:
    m_TransformParent: {fileID: 2323747764514352102}
    m_Modifications:
    - target: {fileID: 100000, guid: 8bbf9c6510729ad4bb2271e747eb99d6, type: 3}
      propertyPath: m_Name
      value: Mesh
      objectReference: {fileID: 0}
    - target: {fileID: 2300000, guid: 8bbf9c6510729ad4bb2271e747eb99d6, type: 3}
      propertyPath: m_Materials.Array.data[0]
      value: 
      objectReference: {fileID: 2100000, guid: 6b6306c356c50b648a5c1328e00811f0, type: 2}
    - target: {fileID: 2300000, guid: 8bbf9c6510729ad4bb2271e747eb99d6, type: 3}
      propertyPath: m_Materials.Array.data[1]
      value: 
      objectReference: {fileID: 2100000, guid: a14058374bbab5141845efdcd25a1ec6, type: 2}
    - target: {fileID: 400000, guid: 8bbf9c6510729ad4bb2271e747eb99d6, type: 3}
      propertyPath: m_LocalPosition.x
      value: 0
      objectReference: {fileID: 0}
    - target: {fileID: 400000, guid: 8bbf9c6510729ad4bb2271e747eb99d6, type: 3}
      propertyPath: m_LocalPosition.y
      value: 5
      objectReference: {fileID: 0}
    - target: {fileID: 400000, guid: 8bbf9c6510729ad4bb2271e747eb99d6, type: 3}
      propertyPath: m_LocalPosition.z
      value: 0
      objectReference: {fileID: 0}
    - target: {fileID: 400000, guid: 8bbf9c6510729ad4bb2271e747eb99d6, type: 3}
      propertyPath: m_LocalRotation.x
      value: -0
      objectReference: {fileID: 0}
    - target: {fileID: 400000, guid: 8bbf9c6510729ad4bb2271e747eb99d6, type: 3}
      propertyPath: m_LocalRotation.y
      value: 0.7071068
      objectReference: {fileID: 0}
    - target: {fileID: 400000, guid: 8bbf9c6510729ad4bb2271e747eb99d6, type: 3}
      propertyPath: m_LocalRotation.z
      value: -0
      objectReference: {fileID: 0}
    - target: {fileID: 400000, guid: 8bbf9c6510729ad4bb2271e747eb99d6, type: 3}
      propertyPath: m_LocalRotation.w
      value: 0.7071068
      objectReference: {fileID: 0}
    - target: {fileID: 400000, guid: 8bbf9c6510729ad4bb2271e747eb99d6, type: 3}
      propertyPath: m_RootOrder
      value: 0
      objectReference: {fileID: 0}
    - target: {fileID: 400000, guid: 8bbf9c6510729ad4bb2271e747eb99d6, type: 3}
      propertyPath: m_LocalEulerAnglesHint.x
      value: 0
      objectReference: {fileID: 0}
    - target: {fileID: 400000, guid: 8bbf9c6510729ad4bb2271e747eb99d6, type: 3}
      propertyPath: m_LocalEulerAnglesHint.y
      value: 90
      objectReference: {fileID: 0}
    - target: {fileID: 400000, guid: 8bbf9c6510729ad4bb2271e747eb99d6, type: 3}
      propertyPath: m_LocalEulerAnglesHint.z
      value: 0
      objectReference: {fileID: 0}
    - target: {fileID: 400000, guid: 8bbf9c6510729ad4bb2271e747eb99d6, type: 3}
      propertyPath: m_LocalScale.x
      value: 1468.8168
      objectReference: {fileID: 0}
    - target: {fileID: 400000, guid: 8bbf9c6510729ad4bb2271e747eb99d6, type: 3}
      propertyPath: m_LocalScale.y
      value: 965.05255
      objectReference: {fileID: 0}
    - target: {fileID: 400000, guid: 8bbf9c6510729ad4bb2271e747eb99d6, type: 3}
      propertyPath: m_LocalScale.z
      value: 1468.8168
      objectReference: {fileID: 0}
    m_RemovedComponents: []
  m_SourcePrefab: {fileID: 100100000, guid: 8bbf9c6510729ad4bb2271e747eb99d6, type: 3}
--- !u!1 &948594379637891215 stripped
GameObject:
  m_CorrespondingSourceObject: {fileID: 100000, guid: 8bbf9c6510729ad4bb2271e747eb99d6,
    type: 3}
  m_PrefabInstance: {fileID: 948594379637794351}
  m_PrefabAsset: {fileID: 0}
--- !u!4 &948594379637406895 stripped
Transform:
  m_CorrespondingSourceObject: {fileID: 400000, guid: 8bbf9c6510729ad4bb2271e747eb99d6,
    type: 3}
  m_PrefabInstance: {fileID: 948594379637794351}
  m_PrefabAsset: {fileID: 0}
